<?xml version="1.0" encoding="UTF-8" standalone="no"?>
<!-- Created with Inkscape (http://www.inkscape.org/) -->

<svg
   width="32"
   height="32"
   viewBox="0 0 8.4666665 8.4666669"
   version="1.1"
   id="svg5"
   inkscape:version="1.1.2 (0a00cf5339, 2022-02-04)"
   sodipodi:docname="4MLinux.svg"
   inkscape:export-filename="/home/tgy-tutorials/Scrivania/4MLinux.png"
   inkscape:export-xdpi="96"
   inkscape:export-ydpi="96"
   xmlns:inkscape="http://www.inkscape.org/namespaces/inkscape"
   xmlns:sodipodi="http://sodipodi.sourceforge.net/DTD/sodipodi-0.dtd"
   xmlns="http://www.w3.org/2000/svg"
   xmlns:svg="http://www.w3.org/2000/svg">
  <sodipodi:namedview
     id="namedview7"
     pagecolor="#8c8c8c"
     bordercolor="#666666"
     borderopacity="1.0"
     inkscape:pageshadow="2"
     inkscape:pageopacity="0"
     inkscape:pagecheckerboard="0"
     inkscape:document-units="px"
     showgrid="false"
     units="px"
     inkscape:showpageshadow="false"
     inkscape:zoom="7.8286645"
     inkscape:cx="38.065241"
     inkscape:cy="24.716859"
     inkscape:window-width="1920"
     inkscape:window-height="996"
     inkscape:window-x="0"
     inkscape:window-y="28"
     inkscape:window-maximized="1"
     inkscape:current-layer="layer1" />
  <defs
     id="defs2" />
  <g
     inkscape:label="Livello 1"
     inkscape:groupmode="layer"
     id="layer1">
    <path
       id="path845"
       style="fill:#e6e6e6;fill-opacity:1;stroke-width:0.605332"
       d="M 4.2334407,0.90857917 A 3.3247541,3.3247541 0 0 0 0.90857917,4.2334407 3.3247541,3.3247541 0 0 0 4.2334407,7.5583022 3.3247541,3.3247541 0 0 0 7.5577855,4.2334407 3.3247541,3.3247541 0 0 0 4.2334407,0.90857917 Z M 3.4448583,2.7606624 H 4.0055477 V 5.7062189 H 3.4960179 V 4.6277318 H 2.0366754 v -0.396358 z m 1.0159587,0.00413 H 4.9899837 L 5.4488704,3.6748185 5.9041397,2.7647966 H 6.429689 V 5.7062189 H 5.9196427 V 3.8195125 L 5.7077691,4.2747818 H 5.1899714 L 4.9703466,3.811761 V 5.7062189 H 4.460817 Z M 3.4960179,3.4040339 2.7115698,4.1962337 h 0.7844481 z" />
  </g>
  <style
     type="text/css"
     id="style884">
	.st0{fill:#FFFFFF;}
	.st1{fill:#69B53F;}
	.st2{fill:#F8F8F8;}
</style>
</svg>
