<?xml version="1.0" encoding="UTF-8" standalone="no"?>
<!-- Created with Inkscape (http://www.inkscape.org/) -->

<svg
   width="32"
   height="32"
   viewBox="0 0 8.4666665 8.4666669"
   version="1.1"
   id="svg5"
   inkscape:version="1.1.2 (0a00cf5339, 2022-02-04)"
   sodipodi:docname="chakra.svg"
   inkscape:export-filename="/home/tgy-tutorials/Scrivania/chakra.png"
   inkscape:export-xdpi="96"
   inkscape:export-ydpi="96"
   xmlns:inkscape="http://www.inkscape.org/namespaces/inkscape"
   xmlns:sodipodi="http://sodipodi.sourceforge.net/DTD/sodipodi-0.dtd"
   xmlns="http://www.w3.org/2000/svg"
   xmlns:svg="http://www.w3.org/2000/svg">
  <sodipodi:namedview
     id="namedview7"
     pagecolor="#8c8c8c"
     bordercolor="#666666"
     borderopacity="1.0"
     inkscape:pageshadow="2"
     inkscape:pageopacity="0"
     inkscape:pagecheckerboard="0"
     inkscape:document-units="px"
     showgrid="false"
     units="px"
     inkscape:showpageshadow="false"
     inkscape:zoom="3.9143323"
     inkscape:cx="-75.619539"
     inkscape:cy="9.3247067"
     inkscape:window-width="1920"
     inkscape:window-height="996"
     inkscape:window-x="0"
     inkscape:window-y="28"
     inkscape:window-maximized="1"
     inkscape:current-layer="layer1" />
  <defs
     id="defs2" />
  <g
     inkscape:label="Livello 1"
     inkscape:groupmode="layer"
     id="layer1">
    <path
       id="path845"
       style="fill:#e6e6e6;stroke-width:0.497409"
       d="M 4.2334407,0.90857917 A 3.3247541,3.3247541 0 0 0 0.90857917,4.2334407 3.3247541,3.3247541 0 0 0 4.2334407,7.5583025 3.3247541,3.3247541 0 0 0 7.5583023,4.2334407 3.3247541,3.3247541 0 0 0 4.2334407,0.90857917 Z M 4.355397,1.5938087 c 0.018742,-6.153e-4 0.040513,0.00201 0.065112,0.00775 0.8242464,0.1922739 0.9677958,-0.3479115 1.2443685,0.5177978 0.2792,0.873937 -0.033843,2.6608042 -1.4009478,2.2773809 C 5.9033764,4.5866026 3.7743876,1.6128819 4.355397,1.5938087 Z M 2.7265558,2.0082536 c 0.907246,0.00123 2.4884835,0.8547441 1.7058391,2.0525881 C 5.1394693,2.491928 1.4395349,3.7481623 1.8552914,3.0469499 2.2906172,2.3127294 1.827848,2.0070366 2.7265558,2.0082536 Z M 3.3585586,3.3508074 C 3.6399337,3.3514845 3.9209022,3.4791739 4.1693618,3.7952246 2.9140174,2.6295832 2.9503542,6.580038 2.4201146,5.9630511 1.8649169,5.3169878 1.4348399,5.6683812 1.7136978,4.8034318 1.9160321,4.1758364 2.6394891,3.3490768 3.3585586,3.3508074 Z m 3.1036866,0.1395263 c 0.061909,-8.973e-4 0.1002305,0.039403 0.1085205,0.1348755 0.074098,0.8530534 0.625977,0.8247525 -0.1018025,1.3585735 C 5.7342748,5.5226735 3.9587895,5.7731583 3.8965103,4.3383441 4.1956479,5.8303472 5.9958623,3.4970933 6.4622452,3.4903337 Z m -2.6241293,0.47594 C 2.3552015,4.8147925 6.0781276,6.0007775 5.3346654,6.3206518 4.5562038,6.6555948 4.7530993,7.1783754 4.026735,6.642596 3.2934706,6.1017134 2.5094991,4.4696213 3.8381159,3.9662737 Z" />
  </g>
  <style
     type="text/css"
     id="style884">
	.st0{fill:#FFFFFF;}
	.st1{fill:#69B53F;}
	.st2{fill:#F8F8F8;}
</style>
</svg>
