<?xml version="1.0" encoding="UTF-8" standalone="no"?>
<!-- Created with Inkscape (http://www.inkscape.org/) -->

<svg
   width="32"
   height="32"
   viewBox="0 0 8.4666665 8.4666669"
   version="1.1"
   id="svg5"
   inkscape:version="1.1.2 (0a00cf5339, 2022-02-04)"
   sodipodi:docname="driver.svg"
   inkscape:export-filename="/home/tgy-tutorials/Scrivania/driver.png"
   inkscape:export-xdpi="96"
   inkscape:export-ydpi="96"
   xmlns:inkscape="http://www.inkscape.org/namespaces/inkscape"
   xmlns:sodipodi="http://sodipodi.sourceforge.net/DTD/sodipodi-0.dtd"
   xmlns="http://www.w3.org/2000/svg"
   xmlns:svg="http://www.w3.org/2000/svg">
  <sodipodi:namedview
     id="namedview7"
     pagecolor="#8c8c8c"
     bordercolor="#666666"
     borderopacity="1.0"
     inkscape:pageshadow="2"
     inkscape:pageopacity="0"
     inkscape:pagecheckerboard="0"
     inkscape:document-units="px"
     showgrid="false"
     units="px"
     inkscape:showpageshadow="false"
     inkscape:zoom="11.071404"
     inkscape:cx="8.6709874"
     inkscape:cy="6.8193703"
     inkscape:window-width="1920"
     inkscape:window-height="996"
     inkscape:window-x="0"
     inkscape:window-y="28"
     inkscape:window-maximized="1"
     inkscape:current-layer="layer1" />
  <defs
     id="defs2" />
  <g
     inkscape:label="Livello 1"
     inkscape:groupmode="layer"
     id="layer1">
    <path
       d="m 5.3081397,6.1189189 c 0.4278218,0 0.7764174,-0.3485955 0.7764174,-0.7764175 0,-0.4278219 -0.3485956,-0.7764174 -0.7764174,-0.7764174 -0.4309909,0 -0.7764175,0.3485955 -0.7764175,0.7764174 0,0.427822 0.3454266,0.7764175 0.7764175,0.7764175 m 1.6479064,-0.560922 0.4690195,0.3676099 c 0.041198,0.034859 0.053874,0.091902 0.025353,0.1426073 L 7.0067509,6.8351244 c -0.028522,0.047535 -0.082396,0.066551 -0.1362692,0.047535 L 6.3190669,6.6608263 C 6.2049811,6.7495593 6.078219,6.8224479 5.9451188,6.8794908 l -0.085565,0.5862744 c -0.00634,0.053874 -0.053874,0.095072 -0.1077472,0.095072 H 4.8644725 c -0.057043,0 -0.10141,-0.041198 -0.1109166,-0.095072 L 4.6711599,6.8794908 C 4.5348908,6.8224478 4.4112978,6.7495598 4.297212,6.6608263 L 3.742628,6.88266 c -0.047535,0.019014 -0.1077473,0 -0.1331001,-0.047536 L 3.1658609,6.0682143 C 3.1373389,6.0175103 3.1500159,5.960467 3.1912139,5.925607 L 3.6602335,5.5579971 3.6443885,5.3425016 3.6602335,5.1238371 3.1912139,4.7593963 C 3.1500159,4.7245373 3.1373399,4.6643253 3.1658609,4.616789 l 0.443667,-0.7669103 c 0.025353,-0.050704 0.085565,-0.069719 0.1331001,-0.050704 L 4.297212,4.0241773 C 4.4112978,3.9354443 4.5348908,3.8593866 4.6711599,3.8055128 l 0.082396,-0.5894434 c 0.00951,-0.050704 0.053874,-0.091902 0.1109166,-0.091902 h 0.8873343 c 0.053874,0 0.10141,0.041198 0.1077473,0.091902 l 0.085565,0.5894434 c 0.1331001,0.053874 0.2598622,0.129931 0.373948,0.2186645 L 6.870482,3.7991747 c 0.053874,-0.019014 0.1077473,0 0.1362691,0.050704 L 7.4504178,4.616789 c 0.028522,0.047536 0.015845,0.1077473 -0.025353,0.1426073 L 6.9560457,5.1238371 6.9718907,5.3425016 6.9560457,5.5579971 M 2.3894437,2.8294442 c 0.2757074,0 0.497541,-0.2218335 0.497541,-0.4975409 0,-0.2757074 -0.2218336,-0.5007101 -0.497541,-0.5007101 a 0.50071002,0.50071002 0 0 0 -0.50071,0.5007101 c 0,0.2757074 0.2250026,0.4975409 0.50071,0.4975409 m 1.0584629,-0.3581028 0.307398,0.2345098 c 0.022184,0.022184 0.028522,0.060212 0.00951,0.091902 L 3.4796,3.2921251 C 3.463751,3.3238161 3.425723,3.3364921 3.394033,3.3238161 L 3.0390992,3.1812082 2.8045895,3.3206465 2.7443775,3.6977635 c -0.00634,0.034859 -0.034859,0.060212 -0.069719,0.060212 H 2.1042296 c -0.038029,0 -0.066549,-0.025353 -0.072888,-0.060212 L 1.9806356,3.3206465 1.7397878,3.1812082 1.378516,3.3238155 c -0.028522,0.012676 -0.063381,0 -0.082396,-0.03169 L 1.0109058,2.7977532 c -0.019014,-0.03169 -0.00951,-0.069719 0.015845,-0.091902 L 1.3278109,2.4713411 1.3183009,2.331903 1.3278109,2.1924647 1.026751,1.9579549 C 1.001398,1.9357709 0.991892,1.8977429 1.010906,1.8660529 L 1.2961206,1.371681 c 0.019014,-0.03169 0.053874,-0.044367 0.082396,-0.03169 L 1.7366187,1.4825977 1.9806356,1.3431595 2.0313396,0.96604245 c 0.00634,-0.034859 0.034859,-0.060212 0.072888,-0.060212 h 0.5704291 c 0.034859,0 0.063381,0.025353 0.069719,0.060212 L 2.8045877,1.3431595 3.0390974,1.4825977 3.3940312,1.3399905 c 0.03169,-0.012676 0.069719,0 0.085565,0.03169 l 0.2852146,0.494372 c 0.019014,0.03169 0.012676,0.069719 -0.00951,0.091902 l -0.307398,0.2345098 0.00951,0.1394383 z"
       id="path4007"
       style="fill:#e6e6e6;fill-opacity:1;stroke-width:0.316905" />
  </g>
  <style
     type="text/css"
     id="style884">
	.st0{fill:#FFFFFF;}
	.st1{fill:#69B53F;}
	.st2{fill:#F8F8F8;}
</style>
</svg>
