<?xml version="1.0" encoding="UTF-8" standalone="no"?>
<!-- Created with Inkscape (http://www.inkscape.org/) -->

<svg
   width="32"
   height="32"
   viewBox="0 0 8.4666665 8.4666669"
   version="1.1"
   id="svg5"
   inkscape:version="1.1.2 (0a00cf5339, 2022-02-04)"
   sodipodi:docname="efi.svg"
   inkscape:export-filename="/home/tgy-tutorials/Scrivania/efi.png"
   inkscape:export-xdpi="96"
   inkscape:export-ydpi="96"
   xmlns:inkscape="http://www.inkscape.org/namespaces/inkscape"
   xmlns:sodipodi="http://sodipodi.sourceforge.net/DTD/sodipodi-0.dtd"
   xmlns="http://www.w3.org/2000/svg"
   xmlns:svg="http://www.w3.org/2000/svg">
  <sodipodi:namedview
     id="namedview7"
     pagecolor="#8c8c8c"
     bordercolor="#666666"
     borderopacity="1.0"
     inkscape:pageshadow="2"
     inkscape:pageopacity="0"
     inkscape:pagecheckerboard="0"
     inkscape:document-units="px"
     showgrid="false"
     units="px"
     inkscape:showpageshadow="false"
     inkscape:zoom="11.071404"
     inkscape:cx="8.6709874"
     inkscape:cy="6.8193703"
     inkscape:window-width="1920"
     inkscape:window-height="996"
     inkscape:window-x="0"
     inkscape:window-y="28"
     inkscape:window-maximized="1"
     inkscape:current-layer="layer1" />
  <defs
     id="defs2" />
  <g
     inkscape:label="Livello 1"
     inkscape:groupmode="layer"
     id="layer1">
    <path
       d="M 4.2340883,5.3969975 A 1.1963084,1.163664 0 0 1 3.0377798,4.2333335 1.1963084,1.163664 0 0 1 4.2340883,3.0696695 1.1963084,1.163664 0 0 1 5.4303967,4.2333335 1.1963084,1.163664 0 0 1 4.2340883,5.3969975 M 6.7736802,4.5558346 c 0.013672,-0.1063925 0.023926,-0.2127842 0.023926,-0.3225011 0,-0.1097163 -0.010257,-0.2194338 -0.023926,-0.3324754 l 0.7212033,-0.541935 c 0.064943,-0.049871 0.082033,-0.1396397 0.041016,-0.2127842 L 6.8522948,1.995774 C 6.8112785,1.9226294 6.7189918,1.8927066 6.6437952,1.9226294 L 5.7927072,2.2551049 C 5.61497,2.1254395 5.4303967,2.0123977 5.2150612,1.9292789 L 5.0885941,1.0482191 C 5.0749221,0.96842501 5.0031431,0.90857944 4.917693,0.90857944 H 3.5504834 c -0.085451,0 -0.157229,0.0598456 -0.1709011,0.13963966 L 3.2531152,1.9292789 C 3.0377797,2.0123977 2.8532064,2.1254395 2.6754692,2.2551049 L 1.8243812,1.9226294 c -0.075196,-0.029923 -0.1674831,0 -0.2084994,0.073144 L 0.93227699,3.1461389 c -0.0444343,0.073144 -0.0239261,0.1629129 0.0410163,0.2127842 l 0.72120301,0.541935 c -0.013672,0.1130413 -0.023926,0.2227585 -0.023926,0.3324754 0,0.1097175 0.010257,0.2161091 0.023926,0.3225011 L 0.97329334,5.1077439 c -0.0649424,0.049871 -0.0854505,0.1396397 -0.0410163,0.2127842 l 0.68360476,1.150365 c 0.041016,0.073144 0.133303,0.099743 0.2084995,0.073144 l 0.851088,-0.3357996 c 0.1777372,0.1329902 0.3623105,0.2460318 0.577646,0.3291506 L 3.3795824,7.418448 c 0.013672,0.079794 0.085451,0.1396397 0.1709011,0.1396397 h 1.3672098 c 0.085451,0 0.157229,-0.059846 0.1709011,-0.1396397 L 5.2150612,6.5373881 C 5.4303967,6.4509446 5.61497,6.3412277 5.7927072,6.2082375 l 0.851088,0.3358002 c 0.075196,0.026598 0.1674833,0 0.2084996,-0.073144 L 7.5358995,5.3205281 c 0.041016,-0.073144 0.023926,-0.1629129 -0.041016,-0.2127842 z"
       id="path885"
       style="fill:#e6e6e6;fill-opacity:1;stroke-width:0.337106" />
  </g>
  <style
     type="text/css"
     id="style884">
	.st0{fill:#FFFFFF;}
	.st1{fill:#69B53F;}
	.st2{fill:#F8F8F8;}
</style>
</svg>
