<?xml version="1.0" encoding="UTF-8" standalone="no"?>
<!-- Created with Inkscape (http://www.inkscape.org/) -->

<svg
   width="32"
   height="32"
   viewBox="0 0 8.4666665 8.4666669"
   version="1.1"
   id="svg5"
   inkscape:version="1.1.2 (0a00cf5339, 2022-02-04)"
   sodipodi:docname="find.none.svg"
   inkscape:export-filename="/home/tgy-tutorials/Scrivania/find.none.png"
   inkscape:export-xdpi="96"
   inkscape:export-ydpi="96"
   xmlns:inkscape="http://www.inkscape.org/namespaces/inkscape"
   xmlns:sodipodi="http://sodipodi.sourceforge.net/DTD/sodipodi-0.dtd"
   xmlns="http://www.w3.org/2000/svg"
   xmlns:svg="http://www.w3.org/2000/svg">
  <sodipodi:namedview
     id="namedview7"
     pagecolor="#8c8c8c"
     bordercolor="#666666"
     borderopacity="1.0"
     inkscape:pageshadow="2"
     inkscape:pageopacity="0"
     inkscape:pagecheckerboard="0"
     inkscape:document-units="px"
     showgrid="false"
     units="px"
     inkscape:showpageshadow="false"
     inkscape:zoom="11.071404"
     inkscape:cx="8.6709874"
     inkscape:cy="6.8193703"
     inkscape:window-width="1920"
     inkscape:window-height="996"
     inkscape:window-x="0"
     inkscape:window-y="28"
     inkscape:window-maximized="1"
     inkscape:current-layer="layer1" />
  <defs
     id="defs2" />
  <g
     inkscape:label="Livello 1"
     inkscape:groupmode="layer"
     id="layer1">
    <path
       d="m 4.2333335,0.90857939 c 1.8286149,0 3.3247543,1.49613941 3.3247543,3.32475411 0,1.8286149 -1.4961394,3.3247543 -3.3247543,3.3247543 -1.8286147,0 -3.32475411,-1.4961394 -3.32475411,-3.3247543 0,-1.8286147 1.49613941,-3.32475411 3.32475411,-3.32475411 m 0,0.66495071 c -0.6317032,0 -1.1969115,0.1994853 -1.6291295,0.5652083 L 6.3279286,5.8624631 C 6.6604041,5.3969975 6.8931369,4.8317893 6.8931369,4.2333335 c 0,-1.4628919 -1.1969115,-2.6598034 -2.6598034,-2.6598034 M 5.8624631,6.3279286 2.1387384,2.604204 c -0.365723,0.432218 -0.5652083,0.9974263 -0.5652083,1.6291295 0,1.4628919 1.1969115,2.6598034 2.6598034,2.6598034 0.6317033,0 1.1969115,-0.1994853 1.6291296,-0.5652083 z"
       id="path8968"
       style="fill:#e6e6e6;fill-opacity:1;stroke-width:0.332475" />
  </g>
  <style
     type="text/css"
     id="style884">
	.st0{fill:#FFFFFF;}
	.st1{fill:#69B53F;}
	.st2{fill:#F8F8F8;}
</style>
</svg>
