<?xml version="1.0" encoding="UTF-8" standalone="no"?>
<!-- Created with Inkscape (http://www.inkscape.org/) -->

<svg
   width="32"
   height="32"
   viewBox="0 0 8.4666665 8.4666669"
   version="1.1"
   id="svg5"
   inkscape:version="1.1.2 (0a00cf5339, 2022-02-04)"
   sodipodi:docname="fedora.svg"
   inkscape:export-filename="/home/tgy-tutorials/Scrivania/fedora.png"
   inkscape:export-xdpi="96"
   inkscape:export-ydpi="96"
   xmlns:inkscape="http://www.inkscape.org/namespaces/inkscape"
   xmlns:sodipodi="http://sodipodi.sourceforge.net/DTD/sodipodi-0.dtd"
   xmlns="http://www.w3.org/2000/svg"
   xmlns:svg="http://www.w3.org/2000/svg">
  <sodipodi:namedview
     id="namedview7"
     pagecolor="#8c8c8c"
     bordercolor="#666666"
     borderopacity="1.0"
     inkscape:pageshadow="2"
     inkscape:pageopacity="0"
     inkscape:pagecheckerboard="0"
     inkscape:document-units="px"
     showgrid="false"
     units="px"
     inkscape:showpageshadow="false"
     inkscape:zoom="21.231805"
     inkscape:cx="17.285389"
     inkscape:cy="16.272757"
     inkscape:window-width="1920"
     inkscape:window-height="996"
     inkscape:window-x="0"
     inkscape:window-y="28"
     inkscape:window-maximized="1"
     inkscape:current-layer="layer1" />
  <defs
     id="defs2">
    <inkscape:path-effect
       is_visible="true"
       id="path-effect2991"
       effect="spiro" />
    <inkscape:path-effect
       effect="spiro"
       id="path-effect3177"
       is_visible="true" />
  </defs>
  <g
     inkscape:label="Livello 1"
     inkscape:groupmode="layer"
     id="layer1">
    <path
       id="path3913"
       style="fill:#e6e6e6;fill-opacity:1;stroke-width:1.02497"
       d="M 16 3.4335938 A 12.566 12.566 0 0 0 3.4335938 16 A 12.566 12.566 0 0 0 16 28.566406 A 12.566 12.566 0 0 0 28.566406 16 A 12.566 12.566 0 0 0 16 3.4335938 z M 19.824219 7.171875 C 20.243573 7.171875 20.541499 7.2188813 20.929688 7.3203125 C 21.49572 7.4684246 21.956839 7.9328484 21.957031 8.4726562 C 21.957031 9.1251433 21.483373 9.5996094 20.775391 9.5996094 C 20.438431 9.5996094 20.317857 9.5351563 19.824219 9.5351562 C 18.366941 9.5351562 17.184196 10.7146 17.181641 12.171875 L 17.181641 14.46875 C 17.181641 14.674432 17.348647 14.839844 17.554688 14.839844 L 19.291016 14.839844 C 19.93765 14.839844 20.458984 15.355501 20.458984 16.003906 C 20.459328 16.656359 19.930961 17.169922 19.277344 17.169922 L 17.181641 17.169922 L 17.181641 19.824219 C 17.181641 22.588236 14.939898 24.828125 12.175781 24.828125 C 11.756427 24.828125 11.458501 24.781119 11.070312 24.679688 C 10.504279 24.531577 10.043161 24.067152 10.042969 23.527344 C 10.042969 22.874857 10.516627 22.400391 11.224609 22.400391 C 11.561569 22.400391 11.682143 22.464844 12.175781 22.464844 C 13.633059 22.464844 14.815804 21.2854 14.818359 19.828125 L 14.818359 17.53125 C 14.818359 17.325568 14.651353 17.160156 14.445312 17.160156 L 12.708984 17.160156 C 12.06235 17.160156 11.541016 16.644499 11.541016 15.996094 C 11.540672 15.343641 12.069039 14.830078 12.722656 14.830078 L 14.818359 14.830078 L 14.818359 12.175781 C 14.818359 9.4117639 17.060102 7.171875 19.824219 7.171875 z "
       transform="scale(0.26458333)" />
  </g>
  <style
     type="text/css"
     id="style884">
	.st0{fill:#FFFFFF;}
	.st1{fill:#69B53F;}
	.st2{fill:#F8F8F8;}
</style>
</svg>
