<?xml version="1.0" encoding="UTF-8" standalone="no"?>
<!-- Created with Inkscape (http://www.inkscape.org/) -->

<svg
   width="32"
   height="32"
   viewBox="0 0 8.4666665 8.4666669"
   version="1.1"
   id="svg5"
   inkscape:version="1.1.2 (0a00cf5339, 2022-02-04)"
   sodipodi:docname="lang.svg"
   inkscape:export-filename="/home/tgy-tutorials/Scrivania/lang.png"
   inkscape:export-xdpi="96"
   inkscape:export-ydpi="96"
   xmlns:inkscape="http://www.inkscape.org/namespaces/inkscape"
   xmlns:sodipodi="http://sodipodi.sourceforge.net/DTD/sodipodi-0.dtd"
   xmlns="http://www.w3.org/2000/svg"
   xmlns:svg="http://www.w3.org/2000/svg">
  <sodipodi:namedview
     id="namedview7"
     pagecolor="#8c8c8c"
     bordercolor="#666666"
     borderopacity="1.0"
     inkscape:pageshadow="2"
     inkscape:pageopacity="0"
     inkscape:pagecheckerboard="0"
     inkscape:document-units="px"
     showgrid="false"
     units="px"
     inkscape:showpageshadow="false"
     inkscape:zoom="11.071404"
     inkscape:cx="8.6709874"
     inkscape:cy="6.8193703"
     inkscape:window-width="1920"
     inkscape:window-height="996"
     inkscape:window-x="0"
     inkscape:window-y="28"
     inkscape:window-maximized="1"
     inkscape:current-layer="layer1" />
  <defs
     id="defs2" />
  <g
     inkscape:label="Livello 1"
     inkscape:groupmode="layer"
     id="layer1">
    <path
       d="M 6.1949385,6.0253761 C 6.1084949,5.7593957 5.8591383,5.5632352 5.5632351,5.5632352 H 5.2307598 V 4.565809 A 0.33247541,0.33247541 0 0 0 4.8982844,4.2333336 H 2.9034319 V 3.5683827 H 3.5683826 A 0.33247541,0.33247541 0 0 0 3.9008581,3.2359074 V 2.5709564 H 4.5658089 A 0.66495083,0.66495083 0 0 0 5.2307598,1.9060057 v -0.136315 c 0.974153,0.392321 1.6623771,1.3465255 1.6623771,2.4636429 0,0.6915488 -0.2659804,1.3199274 -0.6981984,1.7920425 M 3.9008581,6.8698637 C 2.5875802,6.7069507 1.5735302,5.5898333 1.5735302,4.2333336 c 0,-0.2061348 0.026598,-0.40562 0.069821,-0.595131 L 3.2359073,5.2307598 V 5.5632352 A 0.66495083,0.66495083 0 0 0 3.9008581,6.2281861 M 4.2333335,0.90857942 A 3.3247541,3.3247541 0 0 0 0.90857943,4.2333336 3.3247541,3.3247541 0 0 0 4.2333335,7.5580878 3.3247541,3.3247541 0 0 0 7.5580877,4.2333336 3.3247541,3.3247541 0 0 0 4.2333335,0.90857942 Z"
       id="path13578"
       style="fill:#e6e6e6;fill-opacity:1;stroke-width:0.332475" />
  </g>
  <style
     type="text/css"
     id="style884">
	.st0{fill:#FFFFFF;}
	.st1{fill:#69B53F;}
	.st2{fill:#F8F8F8;}
</style>
</svg>
