<?xml version="1.0" encoding="UTF-8" standalone="no"?>
<!-- Created with Inkscape (http://www.inkscape.org/) -->

<svg
   width="32"
   height="32"
   viewBox="0 0 8.4666665 8.4666669"
   version="1.1"
   id="svg5"
   inkscape:version="1.1.2 (0a00cf5339, 2022-02-04)"
   sodipodi:docname="solus.svg"
   inkscape:export-filename="/home/tgy-tutorials/Scrivania/solus.png"
   inkscape:export-xdpi="96"
   inkscape:export-ydpi="96"
   xmlns:inkscape="http://www.inkscape.org/namespaces/inkscape"
   xmlns:sodipodi="http://sodipodi.sourceforge.net/DTD/sodipodi-0.dtd"
   xmlns:xlink="http://www.w3.org/1999/xlink"
   xmlns="http://www.w3.org/2000/svg"
   xmlns:svg="http://www.w3.org/2000/svg">
  <sodipodi:namedview
     id="namedview7"
     pagecolor="#8c8c8c"
     bordercolor="#666666"
     borderopacity="1.0"
     inkscape:pageshadow="2"
     inkscape:pageopacity="0"
     inkscape:pagecheckerboard="0"
     inkscape:document-units="px"
     showgrid="false"
     units="px"
     inkscape:showpageshadow="false"
     inkscape:zoom="11.071046"
     inkscape:cx="15.987649"
     inkscape:cy="15.942486"
     inkscape:window-width="1920"
     inkscape:window-height="996"
     inkscape:window-x="0"
     inkscape:window-y="28"
     inkscape:window-maximized="1"
     inkscape:current-layer="layer1"
     inkscape:snap-global="false" />
  <defs
     id="defs2">
    <linearGradient
       id="linearGradient6147-1-1-4-4-7-0-6-1">
      <stop
         id="stop6149-6-3-9-3-3-6-7-8"
         offset="0"
         style="stop-color:#5f8dd3;stop-opacity:1;" />
      <stop
         id="stop6151-5-0-9-5-1-1-4-6"
         offset="1"
         style="stop-color:#162d50;stop-opacity:1;" />
    </linearGradient>
    <radialGradient
       inkscape:collect="always"
       xlink:href="#linearGradient6147-1-1-4-4-7-0-6-1"
       id="radialGradient5132"
       gradientUnits="userSpaceOnUse"
       gradientTransform="matrix(0.68941368,0.68941368,-0.68941893,0.68941893,199.77384,-532.32858)"
       spreadMethod="pad"
       cx="1027.8583"
       cy="477.45059"
       fx="1027.8583"
       fy="477.45059"
       r="57.480274" />
  </defs>
  <g
     inkscape:label="Livello 1"
     inkscape:groupmode="layer"
     id="layer1">
    <path
       id="path7916"
       style="fill:#e6e6e6;fill-opacity:1;stroke:none;stroke-width:28.3626;stroke-linecap:round;stroke-miterlimit:4;stroke-dasharray:none;stroke-opacity:1"
       d="M 16 3.4335938 A 12.566 12.566 0 0 0 3.4335938 16 A 12.566 12.566 0 0 0 16 28.566406 A 12.566 12.566 0 0 0 28.566406 16 A 12.566 12.566 0 0 0 16 3.4335938 z M 15.693359 6.4746094 A 9.8284174 9.8284174 0 0 1 25.521484 16.302734 A 9.8284174 9.8284174 0 0 1 24.847656 19.806641 C 24.86136 19.796997 24.875002 19.78704 24.888672 19.777344 C 24.587823 20.586891 24.172145 21.348987 23.666016 22.044922 A 9.8284174 9.8284174 0 0 1 23.623047 22.103516 C 23.342279 22.483641 23.035074 22.844969 22.703125 23.181641 A 9.8284174 9.8284174 0 0 1 22.5625 23.320312 C 22.561843 23.320953 22.561204 23.321625 22.560547 23.322266 C 22.246901 23.62803 21.913119 23.911313 21.5625 24.173828 A 9.8284174 9.8284174 0 0 1 21.376953 24.3125 C 20.99804 24.582871 20.60022 24.826315 20.1875 25.041016 A 9.8284174 9.8284174 0 0 1 20.128906 25.070312 C 20.126313 25.071639 20.123688 25.072894 20.121094 25.074219 C 19.27847 25.504497 18.374464 25.81356 17.4375 25.974609 C 13.975017 26.64267 10.227084 25.256355 8.0703125 22.505859 C 8.0832994 22.506853 8.0963865 22.506823 8.109375 22.507812 A 9.8284174 9.8284174 0 0 1 5.8652344 16.302734 A 9.8284174 9.8284174 0 0 1 15.693359 6.4746094 z "
       transform="scale(0.26458333)" />
    <path
       style="color:#000000;font-style:normal;font-variant:normal;font-weight:normal;font-stretch:normal;font-size:medium;line-height:normal;font-family:sans-serif;text-indent:0;text-align:start;text-decoration:none;text-decoration-line:none;text-decoration-style:solid;text-decoration-color:#000000;letter-spacing:normal;word-spacing:normal;text-transform:none;writing-mode:lr-tb;direction:ltr;baseline-shift:baseline;text-anchor:start;white-space:normal;clip-rule:nonzero;display:inline;overflow:visible;visibility:visible;isolation:auto;mix-blend-mode:normal;color-interpolation:sRGB;color-interpolation-filters:linearRGB;solid-color:#000000;solid-opacity:1;fill:#d0d3db;fill-opacity:1;fill-rule:evenodd;stroke:none;stroke-width:0.175451;stroke-linecap:butt;stroke-linejoin:miter;stroke-miterlimit:4;stroke-dasharray:none;stroke-dashoffset:0;stroke-opacity:1;color-rendering:auto;image-rendering:auto;shape-rendering:auto;text-rendering:auto;enable-background:accumulate"
       d="M 3.2175357,1.5503635 C 2.8262197,2.8285915 2.2477629,4.0450287 1.5922629,5.2072264 l -0.040632,0.081264 0.062637,0.03228 c 0.054988,0.025529 0.1273787,0.042697 0.2253793,0.062297 0.098001,0.0196 0.2185529,0.039135 0.3540205,0.058487 0.2709362,0.038705 0.6012777,0.076536 0.921755,0.1098331 0.640955,0.066593 1.2426032,0.1151497 1.2426032,0.1151497 l 0.1023731,0.00825 -0.00786,-0.1024527 c 0,0 -0.1587464,-2.0653113 -0.1883983,-2.4046572 l -0.00159,-0.018332 -0.00889,-0.016189 C 4.0657963,2.833139 3.336038,1.5856994 3.2175357,1.5503635 Z m 0.081263,0.3656863 c 0.2774348,0.4880636 0.5171117,0.764787 0.8126362,1.3002179 0.029487,0.3412304 0.145583,2.1030538 0.1581057,2.265839 C 4.1818752,5.4749425 3.7190671,5.4377132 3.1335164,5.3768768 2.8142963,5.3437107 2.4855004,5.3060584 2.2185072,5.2679165 2.085011,5.248846 1.9669085,5.22958 1.8740892,5.2110161 1.8282927,5.2018569 1.8272866,5.1752281 1.795422,5.1665946 2.2741715,4.3207001 3.0346446,2.9941044 3.2987987,1.9160498 Z"
       id="path4806-5"
       inkscape:connector-curvature="0"
       sodipodi:nodetypes="ccccsssccccccccccssscc" />
    <path
       style="color:#000000;font-style:normal;font-variant:normal;font-weight:normal;font-stretch:normal;font-size:medium;line-height:normal;font-family:sans-serif;text-indent:0;text-align:start;text-decoration:none;text-decoration-line:none;text-decoration-style:solid;text-decoration-color:#000000;letter-spacing:normal;word-spacing:normal;text-transform:none;writing-mode:lr-tb;direction:ltr;baseline-shift:baseline;text-anchor:start;white-space:normal;clip-rule:nonzero;display:inline;overflow:visible;visibility:visible;isolation:auto;mix-blend-mode:normal;color-interpolation:sRGB;color-interpolation-filters:linearRGB;solid-color:#000000;solid-opacity:1;fill:#e6e6e6;fill-opacity:1;fill-rule:evenodd;stroke:none;stroke-width:0.175451;stroke-linecap:butt;stroke-linejoin:miter;stroke-miterlimit:4;stroke-dasharray:none;stroke-dashoffset:0;stroke-opacity:1;color-rendering:auto;image-rendering:auto;shape-rendering:auto;text-rendering:auto;enable-background:accumulate"
       d="M 6.6973467,4.8476674 C 6.3176136,5.359948 5.6161676,5.6337324 4.7805232,5.7551468 3.9086759,5.8818213 2.8977171,5.8441833 1.9956641,5.7671299 c 0.043205,0.064539 0.090626,0.1271105 0.1394313,0.1875256 0.8683668,0.068846 1.8250939,0.096984 2.6706638,-0.025871 C 5.5109783,5.82632 6.1482188,5.618433 6.5853967,5.2320916 6.6330997,5.1078765 6.6723247,4.9702882 6.6973467,4.8476674 Z"
       id="path4808-8"
       inkscape:connector-curvature="0"
       sodipodi:nodetypes="csccscc" />
    <path
       style="color:#000000;font-style:normal;font-variant:normal;font-weight:normal;font-stretch:normal;font-size:medium;line-height:normal;font-family:sans-serif;text-indent:0;text-align:start;text-decoration:none;text-decoration-line:none;text-decoration-style:solid;text-decoration-color:#000000;letter-spacing:normal;word-spacing:normal;text-transform:none;writing-mode:lr-tb;direction:ltr;baseline-shift:baseline;text-anchor:start;white-space:normal;clip-rule:nonzero;display:inline;overflow:visible;visibility:visible;isolation:auto;mix-blend-mode:normal;color-interpolation:sRGB;color-interpolation-filters:linearRGB;solid-color:#000000;solid-opacity:1;fill:#d0d3db;fill-opacity:1;fill-rule:evenodd;stroke:none;stroke-width:0.175451;stroke-linecap:butt;stroke-linejoin:miter;stroke-miterlimit:4;stroke-dasharray:none;stroke-dashoffset:0;stroke-opacity:1;color-rendering:auto;image-rendering:auto;shape-rendering:auto;text-rendering:auto;enable-background:accumulate"
       d="m 4.5990169,3.4600586 -0.0418,0.1828236 C 4.9655097,3.9159861 5.3546088,4.1544314 5.6072956,4.4079825 5.859982,4.6615339 5.9783924,4.911053 5.8823539,5.2604569 L 5.8375955,5.4235396 5.9967101,5.3662427 C 6.4938598,5.1873652 6.7300817,4.8407429 6.8743982,4.5571175 L 6.91503,4.4758538 6.8337664,4.3945902 C 6.5914736,4.1394334 6.2172238,3.9703125 5.7829965,3.816361 5.3487688,3.6624099 4.8758418,3.5268114 4.5990169,3.4600586 Z m 0.4849853,0.3230513 c 0.2020782,0.055536 0.4222222,0.121301 0.640348,0.1986355 0.395779,0.14032 0.770486,0.3207459 0.982226,0.5157542 C 6.5855048,4.7207678 6.4008617,4.9782792 6.0823384,5.1383234 6.1164894,4.8042539 5.9692877,4.5227121 5.7315717,4.2841826 5.5561036,4.108114 5.3269625,3.9459208 5.0840022,3.7831099 Z"
       id="path4810-6"
       inkscape:connector-curvature="0"
       sodipodi:nodetypes="ccsccccccsccsccsc" />
    <circle
       inkscape:export-ydpi="90"
       inkscape:export-xdpi="90"
       r="2.6034856"
       cy="4.3102765"
       cx="4.1551175"
       id="circle4812-0"
       style="fill:#500000;fill-opacity:0;stroke:none;stroke-width:0.121895;stroke-miterlimit:4;stroke-dasharray:none;stroke-opacity:1" />
    <path
       inkscape:export-ydpi="90"
       inkscape:export-xdpi="90"
       sodipodi:nodetypes="cccc"
       inkscape:connector-curvature="0"
       id="path4816-6"
       d="M 4.3145942,3.2975313 C 4.7062247,4.104293 4.706579,4.9024509 4.4771214,5.4916491 4.8002166,5.4936035 5.3274513,5.5298336 5.8992348,5.2478582 5.4292755,4.1747872 4.3145938,3.2975313 4.3145942,3.2975313 Z"
       style="fill:#e6e6e6;fill-opacity:1;fill-rule:evenodd;stroke:none;stroke-width:0.0406318px;stroke-linecap:butt;stroke-linejoin:miter;stroke-opacity:1" />
    <path
       style="fill:#e6e6e6;fill-opacity:1;fill-rule:evenodd;stroke:none;stroke-width:0.183162;stroke-linecap:butt;stroke-linejoin:miter;stroke-miterlimit:4;stroke-dasharray:none;stroke-opacity:1"
       d="M 3.3029908,1.840027 C 3.0262144,2.9613979 2.2294424,4.3413244 1.7278461,5.2212005 l 0.4433657,0.1054766 c 0.2797386,0.039674 0.6242303,0.078839 0.9586898,0.1133386 0.6134607,0.063276 1.1028926,0.111845 1.1948049,0.1193022 C 4.3115775,5.3898834 4.1853214,3.5475255 4.1544205,3.1924963 3.8447883,2.6355483 3.5936697,2.3477043 3.3029908,1.840027 Z"
       id="path4819-6"
       inkscape:connector-curvature="0"
       sodipodi:nodetypes="cccsccc" />
    <path
       style="fill:#e6e6e6;fill-opacity:1;fill-rule:evenodd;stroke:none;stroke-width:0.185377;stroke-linecap:butt;stroke-linejoin:miter;stroke-miterlimit:4;stroke-dasharray:none;stroke-opacity:1"
       d="M 4.9766947,3.7427854 C 5.2399353,3.9106282 5.4907571,4.0637974 5.6808643,4.2453063 5.9383297,4.491127 6.0699094,4.8223205 6.0329493,5.1665946 6.3779195,5.0016652 6.6059784,4.7266576 6.737119,4.4965667 6.5077612,4.2955995 6.109526,4.0967787 5.6808643,3.9521691 5.4445015,3.872432 5.1956502,3.8000381 4.9766947,3.7427854 Z"
       id="path4821-7"
       inkscape:connector-curvature="0"
       sodipodi:nodetypes="csccsc" />
  </g>
  <style
     type="text/css"
     id="style884">
	.st0{fill:#FFFFFF;}
	.st1{fill:#69B53F;}
	.st2{fill:#F8F8F8;}
</style>
</svg>
